Results:
0: Italy (14)
1: Fiji (9)
2: Wales (5)
3: United States (15)
4: Romania (17)
5: Tonga (11)
6: New Zealand (1)
7: France (7)
8: Argentina (8)
9: Austrailia (2)
10: England (4) 
11: South Africa (3)
12: Scotland (10)
13: Canada (18)
14: Ireland (6)
15: Japan (13)
16: Georgia (16)
17: Namibia (20)
18: Samoa (12)
19: Uruguay (19)
